%YAML 1.1
%TAG !u! tag:unity3d.com,2011:
--- !u!114 &11400000
MonoBehaviour:
  m_ObjectHideFlags: 0
  m_PrefabParentObject: {fileID: 0}
  m_PrefabInternal: {fileID: 0}
  m_GameObject: {fileID: 0}
  m_Enabled: 1
  m_EditorHideFlags: 0
  m_Script: {fileID: 11500000, guid: 3191284778b1ac44392b423ff6b8626c, type: 3}
  m_Name: ShopItemsDatabase
  m_EditorClassIdentifier: 
  ShopDatabase:
  - Name: FireWall
    Count: 1
    Price: 600
    Icon: {fileID: 21300000, guid: 5386a693e30350f4db4a0056283d3b96, type: 3}
    Description: 
  - Name: FireBall
    Count: 1
    Price: 220
    Icon: {fileID: 21300000, guid: 5a7ec7ce7f7ec8349ac5c39397d5bd32, type: 3}
    Description: 
