%YAML 1.1
%TAG !u! tag:unity3d.com,2011:
--- !u!114 &11400000
MonoBehaviour:
  m_ObjectHideFlags: 0
  m_PrefabParentObject: {fileID: 0}
  m_PrefabInternal: {fileID: 0}
  m_GameObject: {fileID: 0}
  m_Enabled: 1
  m_EditorHideFlags: 0
  m_Script: {fileID: 11500000, guid: 447bb9bf80e3da34eb5e7b5354c77920, type: 3}
  m_Name: TutorialObjectData
  m_EditorClassIdentifier: 
  ObjectsDatabase:
  - Object_ID: 1
    Object_Type: 0
    Object_Prefab: {fileID: 1806771584930842, guid: b5b70521246b7b847a280e7c4e9b99fa,
      type: 2}
    Object_ReplacingObjectPrefab: {fileID: 1996878398771792, guid: 6341c57ebcb3b35408157a0414a8dea4,
      type: 2}
    Object_deathAudioClip: {fileID: 8300000, guid: 60576eed71f61644f9e5506db5de40f7,
      type: 3}
    Object_hitAudioClip: {fileID: 8300000, guid: e8a7a543166d8e848bcad7f13bd60ca1,
      type: 3}
    Object_hitVFX: {fileID: 0}
    Object_deathVFX: {fileID: 1462327970484030, guid: f01c1eba69de19e44b04d8d651aaac37,
      type: 2}
    Object_name: WodenChest
    Object_moveDistance: 1
    Object_damage: 0
    Object_health: 2
  - Object_ID: 2
    Object_Type: 1
    Object_Prefab: {fileID: 1224959807372982, guid: 1fa48f5362ec7cc44acd99645b72ced6,
      type: 2}
    Object_ReplacingObjectPrefab: {fileID: 0}
    Object_deathAudioClip: {fileID: 8300000, guid: 57f2960e7d9979a4b88522e7123b10da,
      type: 3}
    Object_hitAudioClip: {fileID: 8300000, guid: 68951c7381c8f8f4782518c0bb0eb330,
      type: 3}
    Object_hitVFX: {fileID: 0}
    Object_deathVFX: {fileID: 100018, guid: a40b64bf23366dc42a892af2c6ff6140, type: 2}
    Object_name: Groot
    Object_moveDistance: 1
    Object_damage: 1
    Object_health: 2
  - Object_ID: 3
    Object_Type: 2
    Object_Prefab: {fileID: 1461398156704430, guid: c611bb5a6bbf91143a143f58ba84adb8,
      type: 2}
    Object_ReplacingObjectPrefab: {fileID: 0}
    Object_deathAudioClip: {fileID: 8300000, guid: 0fd4f79cb41203c44a45dd8a2cb4a71f,
      type: 3}
    Object_hitAudioClip: {fileID: 8300000, guid: 69bf8db4637bf31438959bb988a0ae6b,
      type: 3}
    Object_hitVFX: {fileID: 0}
    Object_deathVFX: {fileID: 1040608886635896, guid: a97415c6b57076f41a6621a7b51d63a3,
      type: 2}
    Object_name: StoneCube
    Object_moveDistance: 1
    Object_damage: 3
    Object_health: 3
  - Object_ID: 4
    Object_Type: 3
    Object_Prefab: {fileID: 1445571702667498, guid: 48cdf50b8fc784b42840aa06283b65fd,
      type: 2}
    Object_ReplacingObjectPrefab: {fileID: 0}
    Object_deathAudioClip: {fileID: 8300000, guid: 64376ecd3a82d3e42a2a681c1d448090,
      type: 3}
    Object_hitAudioClip: {fileID: 8300000, guid: 243a1b4923ae37e4ab8915215f7796fb,
      type: 3}
    Object_hitVFX: {fileID: 0}
    Object_deathVFX: {fileID: 1893225276130666, guid: 789e646de47d7a64daa6af59ab41dfe6,
      type: 2}
    Object_name: BushCube
    Object_moveDistance: 1
    Object_damage: 3
    Object_health: 4
